C:\Users\dor.azriel\Desktop\v4\project-template\postgres-library\src\main\java\com\example\multimodule\postgreslibrary\config\ArticlesJpaConfig.java
C:\Users\dor.azriel\Desktop\v4\project-template\postgres-library\src\main\java\com\example\multimodule\postgreslibrary\repository\ArticleRepository.java
C:\Users\dor.azriel\Desktop\v4\project-template\postgres-library\src\main\java\com\example\multimodule\postgreslibrary\dao\ArticleDao.java
